{
  "header-extra": {
    "type": "CMSDataComponent",
    "className": "",
    "blockId": "header-extra",
    "description": "",
    "tags": [],
    "position": 2,
    "photo_url": "",
    "photos": [
      {
        "title": "phone",
        "desc": "+65 6513 0100",
        "url": "tel:+65 6513 0100"
      },
      {
        "url": "mailto:ticketing@silkwaytravelasia.com",
        "desc": "ticketing@silkwaytravelasia.com",
        "title": "email"
      },
      {
        "title": "instagram",
        "desc": "/",
        "url": "https://firebasestorage.googleapis.com/v0/b/headless-cms-292305.appspot.com/o/silkwaytravelasia.com%2Finstagram.png?alt=media&token=797459bd-58cf-4f9a-aa20-f64c1dae7a4a"
      },
      {
        "desc": "/",
        "title": "facebook",
        "url": "https://firebasestorage.googleapis.com/v0/b/headless-cms-292305.appspot.com/o/silkwaytravelasia.com%2Ffacebook.png?alt=media&token=edbaa5ca-1fb6-405f-a917-ec7ba6540545"
      },
      {
        "desc": "/",
        "url": "https://firebasestorage.googleapis.com/v0/b/headless-cms-292305.appspot.com/o/silkwaytravelasia.com%2Flinkin.png?alt=media&token=f51b5755-cb05-4245-8526-c851cef2a19b",
        "title": "linkin"
      }
    ],
    "code": "",
    "attributes": "[[\"\",\"\"]]",
    "title": "",
    "content": ""
  }
}
